<?xml version="1.0" encoding="utf-8"?>
<!-- Generator: Adobe Illustrator 23.0.2, SVG Export Plug-In . SVG Version: 6.00 Build 0)  -->
<svg version="1.0" id="Layer_1" xmlns="http://www.w3.org/2000/svg" xmlns:xlink="http://www.w3.org/1999/xlink" x="0px" y="0px"
	 viewBox="0 0 1920 156" style="enable-background:new 0 0 1920 156;" xml:space="preserve">
<style type="text/css">
	.st0{fill:url(#SVGID_1_);}
</style>
<linearGradient id="SVGID_1_" gradientUnits="userSpaceOnUse" x1="2299" y1="-8603" x2="2454" y2="-8603" gradientTransform="matrix(0 1 -1 0 -7643 -2299)">
	<stop  offset="0.3733" style="stop-color:#1E1E1E"/>
	<stop  offset="0.8888" style="stop-color:#1E1E1E;stop-opacity:0.1469"/>
	<stop  offset="0.9776" style="stop-color:#1E1E1E;stop-opacity:0"/>
</linearGradient>
<polygon class="st0" points="0,155 0,0 1920,0 1920,155 "/>
</svg>
